<mxfile host="app.diagrams.net" modified="2023-03-06T18:04:42.236Z" agent="5.0 (Windows NT 10.0; Win64; x64) AppleWebKit/537.36 (KHTML, like Gecko) Chrome/110.0.0.0 Safari/537.36 Edg/110.0.1587.63" etag="U8sF6EI9TjVRc0ZZA9hu" version="21.0.2" type="gitlab">
  <diagram name="Страница 1" id="lhQVbqrNW-6P_KqumvaG">
    <mxGraphModel dx="529" dy="571" grid="1" gridSize="10" guides="1" tooltips="1" connect="1" arrows="1" fold="1" page="1" pageScale="1" pageWidth="827" pageHeight="1169" math="0" shadow="0">
      <root>
        <mxCell id="0" />
        <mxCell id="1" parent="0" />
        <mxCell id="6o6SiJ6fBs-gnfLWc6C8-23" style="edgeStyle=orthogonalEdgeStyle;rounded=0;orthogonalLoop=1;jettySize=auto;html=1;exitX=0.5;exitY=1;exitDx=0;exitDy=0;entryX=0.457;entryY=-0.021;entryDx=0;entryDy=0;entryPerimeter=0;" edge="1" parent="1" source="6o6SiJ6fBs-gnfLWc6C8-1" target="6o6SiJ6fBs-gnfLWc6C8-3">
          <mxGeometry relative="1" as="geometry" />
        </mxCell>
        <mxCell id="6o6SiJ6fBs-gnfLWc6C8-1" value="start" style="rounded=1;whiteSpace=wrap;html=1;" vertex="1" parent="1">
          <mxGeometry x="120" y="20" width="110" height="30" as="geometry" />
        </mxCell>
        <mxCell id="6o6SiJ6fBs-gnfLWc6C8-25" style="edgeStyle=orthogonalEdgeStyle;rounded=0;orthogonalLoop=1;jettySize=auto;html=1;exitX=0.5;exitY=1;exitDx=0;exitDy=0;entryX=0.5;entryY=0;entryDx=0;entryDy=0;" edge="1" parent="1" source="6o6SiJ6fBs-gnfLWc6C8-2" target="6o6SiJ6fBs-gnfLWc6C8-5">
          <mxGeometry relative="1" as="geometry" />
        </mxCell>
        <mxCell id="6o6SiJ6fBs-gnfLWc6C8-2" value="coumt = 0&lt;br&gt;friend = 2" style="rounded=0;whiteSpace=wrap;html=1;" vertex="1" parent="1">
          <mxGeometry x="95" y="160" width="160" height="50" as="geometry" />
        </mxCell>
        <mxCell id="6o6SiJ6fBs-gnfLWc6C8-24" style="edgeStyle=orthogonalEdgeStyle;rounded=0;orthogonalLoop=1;jettySize=auto;html=1;exitX=0.5;exitY=1;exitDx=0;exitDy=0;entryX=0.55;entryY=-0.002;entryDx=0;entryDy=0;entryPerimeter=0;" edge="1" parent="1" source="6o6SiJ6fBs-gnfLWc6C8-3" target="6o6SiJ6fBs-gnfLWc6C8-2">
          <mxGeometry relative="1" as="geometry" />
        </mxCell>
        <mxCell id="6o6SiJ6fBs-gnfLWc6C8-3" value="input distanse, f_f_speed, s_f_speed, dog_speed" style="shape=parallelogram;perimeter=parallelogramPerimeter;whiteSpace=wrap;html=1;fixedSize=1;" vertex="1" parent="1">
          <mxGeometry x="70" y="70" width="230" height="60" as="geometry" />
        </mxCell>
        <mxCell id="6o6SiJ6fBs-gnfLWc6C8-4" style="edgeStyle=orthogonalEdgeStyle;rounded=0;orthogonalLoop=1;jettySize=auto;html=1;exitX=0.5;exitY=1;exitDx=0;exitDy=0;" edge="1" parent="1" source="6o6SiJ6fBs-gnfLWc6C8-2" target="6o6SiJ6fBs-gnfLWc6C8-2">
          <mxGeometry relative="1" as="geometry" />
        </mxCell>
        <mxCell id="6o6SiJ6fBs-gnfLWc6C8-9" value="yes" style="edgeStyle=orthogonalEdgeStyle;rounded=0;orthogonalLoop=1;jettySize=auto;html=1;exitX=0.5;exitY=1;exitDx=0;exitDy=0;entryX=0.5;entryY=0;entryDx=0;entryDy=0;" edge="1" parent="1" source="6o6SiJ6fBs-gnfLWc6C8-5" target="6o6SiJ6fBs-gnfLWc6C8-8">
          <mxGeometry relative="1" as="geometry" />
        </mxCell>
        <mxCell id="6o6SiJ6fBs-gnfLWc6C8-11" value="no" style="edgeStyle=orthogonalEdgeStyle;rounded=0;orthogonalLoop=1;jettySize=auto;html=1;exitX=1;exitY=0.5;exitDx=0;exitDy=0;entryX=0;entryY=0.5;entryDx=0;entryDy=0;" edge="1" parent="1" source="6o6SiJ6fBs-gnfLWc6C8-5">
          <mxGeometry relative="1" as="geometry">
            <mxPoint x="330" y="265" as="targetPoint" />
            <Array as="points">
              <mxPoint x="280" y="265" />
              <mxPoint x="280" y="265" />
            </Array>
          </mxGeometry>
        </mxCell>
        <mxCell id="6o6SiJ6fBs-gnfLWc6C8-5" value="distance &amp;gt; 10" style="rhombus;whiteSpace=wrap;html=1;" vertex="1" parent="1">
          <mxGeometry x="100" y="240" width="150" height="50" as="geometry" />
        </mxCell>
        <mxCell id="6o6SiJ6fBs-gnfLWc6C8-16" style="edgeStyle=orthogonalEdgeStyle;rounded=0;orthogonalLoop=1;jettySize=auto;html=1;exitX=0.5;exitY=1;exitDx=0;exitDy=0;entryX=0.5;entryY=0;entryDx=0;entryDy=0;" edge="1" parent="1" source="6o6SiJ6fBs-gnfLWc6C8-7" target="6o6SiJ6fBs-gnfLWc6C8-15">
          <mxGeometry relative="1" as="geometry">
            <Array as="points">
              <mxPoint x="133" y="470" />
              <mxPoint x="220" y="470" />
              <mxPoint x="220" y="480" />
            </Array>
          </mxGeometry>
        </mxCell>
        <mxCell id="6o6SiJ6fBs-gnfLWc6C8-7" value="time = distance&amp;nbsp;/&amp;nbsp; (f_f_speed +&amp;nbsp;&lt;br&gt;dog_speed)&lt;br&gt;friend = 2" style="rounded=0;whiteSpace=wrap;html=1;" vertex="1" parent="1">
          <mxGeometry x="35" y="400" width="195" height="50" as="geometry" />
        </mxCell>
        <mxCell id="6o6SiJ6fBs-gnfLWc6C8-10" value="yes" style="edgeStyle=orthogonalEdgeStyle;rounded=0;orthogonalLoop=1;jettySize=auto;html=1;exitX=0;exitY=0.5;exitDx=0;exitDy=0;entryX=0.25;entryY=0;entryDx=0;entryDy=0;" edge="1" parent="1" source="6o6SiJ6fBs-gnfLWc6C8-8" target="6o6SiJ6fBs-gnfLWc6C8-7">
          <mxGeometry relative="1" as="geometry" />
        </mxCell>
        <mxCell id="6o6SiJ6fBs-gnfLWc6C8-13" style="edgeStyle=orthogonalEdgeStyle;rounded=0;orthogonalLoop=1;jettySize=auto;html=1;exitX=1;exitY=0.5;exitDx=0;exitDy=0;entryX=0.556;entryY=-0.056;entryDx=0;entryDy=0;entryPerimeter=0;" edge="1" parent="1" source="6o6SiJ6fBs-gnfLWc6C8-8" target="6o6SiJ6fBs-gnfLWc6C8-12">
          <mxGeometry relative="1" as="geometry" />
        </mxCell>
        <mxCell id="6o6SiJ6fBs-gnfLWc6C8-14" value="no" style="edgeLabel;html=1;align=center;verticalAlign=middle;resizable=0;points=[];" vertex="1" connectable="0" parent="6o6SiJ6fBs-gnfLWc6C8-13">
          <mxGeometry x="-0.6129" y="3" relative="1" as="geometry">
            <mxPoint as="offset" />
          </mxGeometry>
        </mxCell>
        <mxCell id="6o6SiJ6fBs-gnfLWc6C8-8" value="friend ==&amp;nbsp; 1" style="rhombus;whiteSpace=wrap;html=1;" vertex="1" parent="1">
          <mxGeometry x="100" y="320" width="150" height="50" as="geometry" />
        </mxCell>
        <mxCell id="6o6SiJ6fBs-gnfLWc6C8-17" style="edgeStyle=orthogonalEdgeStyle;rounded=0;orthogonalLoop=1;jettySize=auto;html=1;exitX=0.5;exitY=1;exitDx=0;exitDy=0;entryX=0.5;entryY=0;entryDx=0;entryDy=0;" edge="1" parent="1" source="6o6SiJ6fBs-gnfLWc6C8-12" target="6o6SiJ6fBs-gnfLWc6C8-15">
          <mxGeometry relative="1" as="geometry">
            <mxPoint x="240" y="480" as="targetPoint" />
            <Array as="points">
              <mxPoint x="365" y="470" />
              <mxPoint x="250" y="470" />
              <mxPoint x="250" y="480" />
              <mxPoint x="245" y="480" />
            </Array>
          </mxGeometry>
        </mxCell>
        <mxCell id="6o6SiJ6fBs-gnfLWc6C8-12" value="time = distance&amp;nbsp;/&amp;nbsp; (s_f_speed +&amp;nbsp;&lt;br style=&quot;border-color: var(--border-color);&quot;&gt;dog_speed)&lt;br style=&quot;border-color: var(--border-color);&quot;&gt;friend = 1" style="rounded=0;whiteSpace=wrap;html=1;" vertex="1" parent="1">
          <mxGeometry x="270" y="400" width="190" height="50" as="geometry" />
        </mxCell>
        <mxCell id="6o6SiJ6fBs-gnfLWc6C8-19" style="edgeStyle=orthogonalEdgeStyle;rounded=0;orthogonalLoop=1;jettySize=auto;html=1;exitX=0.5;exitY=1;exitDx=0;exitDy=0;entryX=0;entryY=0.5;entryDx=0;entryDy=0;" edge="1" parent="1" source="6o6SiJ6fBs-gnfLWc6C8-15" target="6o6SiJ6fBs-gnfLWc6C8-5">
          <mxGeometry relative="1" as="geometry">
            <Array as="points">
              <mxPoint x="245" y="560" />
              <mxPoint x="10" y="560" />
              <mxPoint x="10" y="265" />
            </Array>
          </mxGeometry>
        </mxCell>
        <mxCell id="6o6SiJ6fBs-gnfLWc6C8-15" value="distance = distance - (f_f_speed + s_f_speed&lt;br&gt;) * time&lt;br&gt;count = count&amp;nbsp;+1" style="rounded=0;whiteSpace=wrap;html=1;" vertex="1" parent="1">
          <mxGeometry x="180" y="490" width="130" height="60" as="geometry" />
        </mxCell>
        <mxCell id="6o6SiJ6fBs-gnfLWc6C8-22" style="edgeStyle=orthogonalEdgeStyle;rounded=0;orthogonalLoop=1;jettySize=auto;html=1;exitX=1;exitY=0.5;exitDx=0;exitDy=0;" edge="1" parent="1" source="6o6SiJ6fBs-gnfLWc6C8-20" target="6o6SiJ6fBs-gnfLWc6C8-21">
          <mxGeometry relative="1" as="geometry">
            <Array as="points">
              <mxPoint x="490" y="275" />
            </Array>
          </mxGeometry>
        </mxCell>
        <mxCell id="6o6SiJ6fBs-gnfLWc6C8-20" value="print (count)" style="shape=document;whiteSpace=wrap;html=1;boundedLbl=1;" vertex="1" parent="1">
          <mxGeometry x="330" y="250" width="140" height="50" as="geometry" />
        </mxCell>
        <mxCell id="6o6SiJ6fBs-gnfLWc6C8-21" value="finish" style="rounded=1;whiteSpace=wrap;html=1;" vertex="1" parent="1">
          <mxGeometry x="390" y="530" width="110" height="30" as="geometry" />
        </mxCell>
      </root>
    </mxGraphModel>
  </diagram>
</mxfile>
