<mxfile host="app.diagrams.net" modified="2023-03-02T18:12:43.393Z" agent="5.0 (Windows NT 10.0; Win64; x64) AppleWebKit/537.36 (KHTML, like Gecko) Chrome/110.0.0.0 Safari/537.36 Edg/110.0.1587.57" etag="IUJCC2R0gTw1dLJoY4jH" version="20.8.23" type="gitlab">
  <diagram name="Страница 1" id="NJXvy5gnwEYbgW7Gd3Ha">
    <mxGraphModel dx="1004" dy="581" grid="1" gridSize="10" guides="1" tooltips="1" connect="1" arrows="1" fold="1" page="1" pageScale="1" pageWidth="827" pageHeight="1169" math="0" shadow="0">
      <root>
        <mxCell id="0" />
        <mxCell id="1" parent="0" />
        <mxCell id="Ob7kYyR2w3QRg7t4FH0o-5" value="" style="edgeStyle=orthogonalEdgeStyle;rounded=0;orthogonalLoop=1;jettySize=auto;html=1;" edge="1" parent="1" source="Ob7kYyR2w3QRg7t4FH0o-1" target="Ob7kYyR2w3QRg7t4FH0o-4">
          <mxGeometry relative="1" as="geometry" />
        </mxCell>
        <mxCell id="Ob7kYyR2w3QRg7t4FH0o-1" value="start" style="rounded=1;whiteSpace=wrap;html=1;" vertex="1" parent="1">
          <mxGeometry x="335" y="20" width="110" height="30" as="geometry" />
        </mxCell>
        <mxCell id="Ob7kYyR2w3QRg7t4FH0o-2" value="finish" style="rounded=1;whiteSpace=wrap;html=1;" vertex="1" parent="1">
          <mxGeometry x="605" y="570" width="110" height="30" as="geometry" />
        </mxCell>
        <mxCell id="Ob7kYyR2w3QRg7t4FH0o-3" value="mass= {-1, -2, 0, 1, 2, 3}" style="rounded=0;whiteSpace=wrap;html=1;" vertex="1" parent="1">
          <mxGeometry x="550" y="30" width="160" height="50" as="geometry" />
        </mxCell>
        <mxCell id="Ob7kYyR2w3QRg7t4FH0o-20" style="edgeStyle=orthogonalEdgeStyle;rounded=0;orthogonalLoop=1;jettySize=auto;html=1;exitX=0.5;exitY=1;exitDx=0;exitDy=0;entryX=0.5;entryY=0;entryDx=0;entryDy=0;" edge="1" parent="1" source="Ob7kYyR2w3QRg7t4FH0o-4" target="Ob7kYyR2w3QRg7t4FH0o-6">
          <mxGeometry relative="1" as="geometry" />
        </mxCell>
        <mxCell id="Ob7kYyR2w3QRg7t4FH0o-4" value="input mass[]&lt;br&gt;input n" style="shape=parallelogram;perimeter=parallelogramPerimeter;whiteSpace=wrap;html=1;fixedSize=1;" vertex="1" parent="1">
          <mxGeometry x="330" y="100" width="120" height="60" as="geometry" />
        </mxCell>
        <mxCell id="Ob7kYyR2w3QRg7t4FH0o-21" style="edgeStyle=orthogonalEdgeStyle;rounded=0;orthogonalLoop=1;jettySize=auto;html=1;exitX=0.5;exitY=1;exitDx=0;exitDy=0;entryX=0.5;entryY=0;entryDx=0;entryDy=0;" edge="1" parent="1" source="Ob7kYyR2w3QRg7t4FH0o-6" target="Ob7kYyR2w3QRg7t4FH0o-7">
          <mxGeometry relative="1" as="geometry" />
        </mxCell>
        <mxCell id="Ob7kYyR2w3QRg7t4FH0o-6" value="i = 0&lt;br&gt;sum = 0" style="rounded=0;whiteSpace=wrap;html=1;" vertex="1" parent="1">
          <mxGeometry x="345" y="190" width="100" height="30" as="geometry" />
        </mxCell>
        <mxCell id="Ob7kYyR2w3QRg7t4FH0o-11" value="yes" style="edgeStyle=orthogonalEdgeStyle;rounded=0;orthogonalLoop=1;jettySize=auto;html=1;exitX=0.5;exitY=1;exitDx=0;exitDy=0;entryX=0.5;entryY=0;entryDx=0;entryDy=0;" edge="1" parent="1" source="Ob7kYyR2w3QRg7t4FH0o-7">
          <mxGeometry relative="1" as="geometry">
            <mxPoint x="395" y="350" as="targetPoint" />
          </mxGeometry>
        </mxCell>
        <mxCell id="Ob7kYyR2w3QRg7t4FH0o-30" style="edgeStyle=orthogonalEdgeStyle;rounded=0;orthogonalLoop=1;jettySize=auto;html=1;exitX=1;exitY=0.5;exitDx=0;exitDy=0;entryX=0.5;entryY=0;entryDx=0;entryDy=0;" edge="1" parent="1" source="Ob7kYyR2w3QRg7t4FH0o-7" target="Ob7kYyR2w3QRg7t4FH0o-15">
          <mxGeometry relative="1" as="geometry" />
        </mxCell>
        <mxCell id="Ob7kYyR2w3QRg7t4FH0o-31" value="No" style="edgeLabel;html=1;align=center;verticalAlign=middle;resizable=0;points=[];" vertex="1" connectable="0" parent="Ob7kYyR2w3QRg7t4FH0o-30">
          <mxGeometry x="-0.4212" y="-3" relative="1" as="geometry">
            <mxPoint as="offset" />
          </mxGeometry>
        </mxCell>
        <mxCell id="Ob7kYyR2w3QRg7t4FH0o-7" value="i &amp;lt; n&amp;nbsp;" style="rhombus;whiteSpace=wrap;html=1;" vertex="1" parent="1">
          <mxGeometry x="300" y="240" width="190" height="80" as="geometry" />
        </mxCell>
        <mxCell id="Ob7kYyR2w3QRg7t4FH0o-13" value="no" style="edgeStyle=orthogonalEdgeStyle;rounded=0;orthogonalLoop=1;jettySize=auto;html=1;" edge="1" parent="1" source="Ob7kYyR2w3QRg7t4FH0o-9" target="Ob7kYyR2w3QRg7t4FH0o-12">
          <mxGeometry relative="1" as="geometry" />
        </mxCell>
        <mxCell id="Ob7kYyR2w3QRg7t4FH0o-29" style="edgeStyle=orthogonalEdgeStyle;rounded=0;orthogonalLoop=1;jettySize=auto;html=1;exitX=1;exitY=0.5;exitDx=0;exitDy=0;entryX=0.5;entryY=0;entryDx=0;entryDy=0;" edge="1" parent="1" source="Ob7kYyR2w3QRg7t4FH0o-9" target="Ob7kYyR2w3QRg7t4FH0o-24">
          <mxGeometry relative="1" as="geometry">
            <Array as="points">
              <mxPoint x="510" y="390" />
              <mxPoint x="510" y="530" />
              <mxPoint x="395" y="530" />
            </Array>
          </mxGeometry>
        </mxCell>
        <mxCell id="Ob7kYyR2w3QRg7t4FH0o-9" value="i % 2 == 0&amp;nbsp;" style="rhombus;whiteSpace=wrap;html=1;" vertex="1" parent="1">
          <mxGeometry x="300" y="350" width="190" height="80" as="geometry" />
        </mxCell>
        <mxCell id="Ob7kYyR2w3QRg7t4FH0o-16" style="edgeStyle=orthogonalEdgeStyle;rounded=0;orthogonalLoop=1;jettySize=auto;html=1;exitX=0;exitY=0.5;exitDx=0;exitDy=0;entryX=0;entryY=0.5;entryDx=0;entryDy=0;" edge="1" parent="1" source="Ob7kYyR2w3QRg7t4FH0o-24" target="Ob7kYyR2w3QRg7t4FH0o-7">
          <mxGeometry relative="1" as="geometry">
            <Array as="points">
              <mxPoint x="240" y="585" />
              <mxPoint x="240" y="280" />
            </Array>
          </mxGeometry>
        </mxCell>
        <mxCell id="Ob7kYyR2w3QRg7t4FH0o-26" value="" style="edgeStyle=orthogonalEdgeStyle;rounded=0;orthogonalLoop=1;jettySize=auto;html=1;" edge="1" parent="1" source="Ob7kYyR2w3QRg7t4FH0o-12" target="Ob7kYyR2w3QRg7t4FH0o-24">
          <mxGeometry relative="1" as="geometry" />
        </mxCell>
        <mxCell id="Ob7kYyR2w3QRg7t4FH0o-12" value="sum = sum + mass.i&lt;br&gt;" style="rounded=0;whiteSpace=wrap;html=1;" vertex="1" parent="1">
          <mxGeometry x="315" y="460" width="160" height="50" as="geometry" />
        </mxCell>
        <mxCell id="Ob7kYyR2w3QRg7t4FH0o-18" value="" style="edgeStyle=orthogonalEdgeStyle;rounded=0;orthogonalLoop=1;jettySize=auto;html=1;" edge="1" parent="1" source="Ob7kYyR2w3QRg7t4FH0o-15" target="Ob7kYyR2w3QRg7t4FH0o-2">
          <mxGeometry relative="1" as="geometry" />
        </mxCell>
        <mxCell id="Ob7kYyR2w3QRg7t4FH0o-15" value="print (sum)" style="shape=document;whiteSpace=wrap;html=1;boundedLbl=1;" vertex="1" parent="1">
          <mxGeometry x="590" y="450" width="140" height="50" as="geometry" />
        </mxCell>
        <mxCell id="Ob7kYyR2w3QRg7t4FH0o-24" value="i = i + 1" style="rounded=0;whiteSpace=wrap;html=1;" vertex="1" parent="1">
          <mxGeometry x="315" y="560" width="160" height="50" as="geometry" />
        </mxCell>
      </root>
    </mxGraphModel>
  </diagram>
</mxfile>
